estate_kabiurgarko =
{
	icon = 20

	trigger = {
		tag = Y01
		NOT = {
			has_country_flag = oni_kabiurgarko_lost
		}
	}

	# These scale with loyalty & power
	country_modifier_happy = {
		global_tax_modifier = 0.2
		merc_maintenance_modifier = -0.1
	}
	country_modifier_neutral = {
		global_tax_modifier = 0.2
	}	
	country_modifier_angry = {
		global_tax_modifier = -0.1
		merc_maintenance_modifier = 0.1
		global_unrest = 2
	}
	land_ownership_modifier = {
		kabiurgarko_loyalty_modifier = 0.2
	}
	
	province_independence_weight = {
		factor = 1
		modifier = {
			factor = 0.1
			NOT = { development = 5 }
		}
		modifier = {
			factor = 0.5
			OR = {
				NOT = { development = 10 }
				NOT = { province_trade_power = 5 }
			}
		}
		modifier = {
			factor = 2
			development = 20
		}
		modifier = {
			factor = 0.5
			is_territorial_core = owner
		}
		modifier = {
			factor = 1.5
			province_trade_power = 10
		}
		modifier = {
			factor = 1.5
			province_trade_power = 20
		}
		modifier = {
			factor = 2
			trade_goods = gold
		}
		modifier = {
			factor = 1.5
			has_province_modifier = thankful_guilds
		}
		modifier = {
			factor = 10
			OR = {
				has_terrain = city_terrain 
				has_terrain = dwarven_hold
				has_terrain = dwarven_hold_surface
			}
		}
	}
	
	color = { 200 150 0 }

	base_influence = 10
	influence_modifier = {
		desc = kabiurgarko_heir
		trigger = {
			has_country_flag = oni_heir_kabiurgarko
		}
		influence = 5
	}
	influence_modifier = {
		desc = kabiurgarko_ruler
		trigger = {
			has_country_flag = oni_ruler_kabiurgarko
		}
		influence = 10
	}
	influence_modifier = {
		desc = accepted_cursed
		trigger = {
			has_country_flag = accepted_khelorvalshi
		}
		influence = -5
	}

	loyalty_modifier = {
		desc = kabiurgarko_heir
		trigger = {
			has_country_flag = oni_heir_kabiurgarko
		}
		loyalty = 5
	}
	loyalty_modifier = {
		desc = kabiurgarko_ruler
		trigger = {
			has_country_flag = oni_ruler_kabiurgarko
		}
		loyalty = 5
	}
	loyalty_modifier = {
		desc = accepted_cursed
		trigger = {
			has_country_flag = accepted_khelorvalshi
		}
		loyalty = -5
	}

	privileges = {
		estate_kabiurgarko_monthly_power_dip
		estate_kabiurgarko_land_rights
		estate_kabiurgarko_advisors
		estate_kabiurgarko_monopoly_of_luxuries
		estate_kabiurgarko_control_over_monetary_policy
		estate_kabiurgarko_exclusive_trade_rights
		estate_kabiurgarko_indebted_to_golden
	}

	agendas = {
		estate_kabiurgarko_develop_x
		#estate_burghers_build_port_building_in_y
	}
	influence_from_dev_modifier = 1.0
}